[
    [
        {
            "label": "C'est marqué juste au-dessus...",
            "mood": "eustache-colere"
        }
    ],
    [
        {
            "label": "Ton pire cauchemar.",
            "mood": "eustache-glados"
        }
    ],
    [
        {
            "label": "Tout le monde me connaît ici, il va falloir t'y habituer.",
            "mood": "eustache-normal"
        }
    ]
]